{"questions":
	[
		{
			"_id":1,
			"intituleQuestion" : "Comment évaluez-vous l'intensité des efforts physiques de votre travail au cours d'une journée de travail ?",
			"typeQuestion": "select",
			"scoreMaxQuestion": 2,
			"optionsQuestion":
				[
					{"option":"6 Pas d'effort du tout","score":0},
					{"option":"7 Extrêmement léger","score":0},
					{"option":"8","score":0},
					{"option":"9 Très léger","score":0},
					{"option":"10","score":0},
					{"option":"11 Léger","score":0},
					{"option":"12","score":0},
					{"option":"13 Un peu dur","score":0},
					{"option":"14","score":0},
					{"option":"15 Dur","score":2},
					{"option":"16","score":2},
					{"option":"17 Très dur","score":2},
					{"option":"18","score":2},
					{"option":"19 Extrêmement dur","score":2},
					{"option":"20 Epuisant","score":2}
				]
		},

		{
			"_id":2,
			"intituleQuestion" : "Votre travail nécessite-t-il de répéter les mêmes actions plus de 2 à 4 fois environ par minute ?",
			"typeQuestion": "radio",
			"scoreMaxQuestion": 2,
			"optionsQuestion":
				[
					{"option":"Jamais","score":0},
					{"option":"Rarement (moins de 2h/jour)","score":0},
					{"option":"Souvent (de 2 à 4h/jour)","score":2},
					{"option":"Toujours (plus de 4h/jour)","score":2}
				]
		},
		{
			"_id":3,
			"intituleQuestion" : "Travaillez-vous avec un ou deux bras en l'air (au-dessus des épaules) régulièrement ou de manière prolongée ?",
			"typeQuestion": "radio",
			"scoreMaxQuestion": 2,
			"optionsQuestion":
				[
					{"option":"Jamais","score":0},
					{"option":"Rarement (moins de 2h/jour)","score":0},
					{"option":"Souvent (de 2 à 4h/jour)","score":2},
					{"option":"La plupart du temps (plus de 4h/jour)","score":2}
				]
		},
		{
			"_id":4,
			"intituleQuestion" : "Fléchissez-vous le(s) coude(s) régulièrement ou de manière prolongée ?",
			"typeQuestion": "radio",
			"scoreMaxQuestion": 1,
			"optionsQuestion":
				[
					{"option":"Jamais","score":0},
					{"option":"Rarement (moins de 2h/jour)","score":0},
					{"option":"Souvent (de 2 à 4h/jour)","score":2},
					{"option":"La plupart du temps (plus de 4h/jour)","score":2}
				]
		},

		{
			"_id":5,
			"intituleQuestion" : "Pressez ou prenez-vous fermement des objets ou des pièces entre le pouce et l'index ?",
			"typeQuestion": "radio",
			"scoreMaxQuestion": 2,
			"optionsQuestion":
				[
					{"option":"Jamais","score":0},
					{"option":"Rarement (moins de 2h/jour)","score":0},
					{"option":"Souvent (de 2 à 4h/jour)","score":2},
					{"option":"La plupart du temps (plus de 4h/jour)","score":2}
				]
		},

		{
			"_id":6,
			"intituleQuestion" : "J'ai la possibilité d'influencer le déroulement de mon travail.",
			"typeQuestion": "radio",
			"scoreMaxQuestion": 2,
			"optionsQuestion":
				[
					{"option":"D'accord","score":0},
					{"option":"Tout à fait d'accord","score":0},
					{"option":"Pas d'accord","score":2},
					{"option":"Pas du tout d'accord","score":2}
				]
		},

		{
			"_id":7,
			"intituleQuestion" : "Les collègues avec qui je travaille m'aident à mener mes tâches à bien.",
			"typeQuestion": "radio",
			"scoreMaxQuestion": 2,
			"optionsQuestion":
				[
					{"option":"D'accord","score":0},
					{"option":"Tout à fait d'accord","score":0},
					{"option":"Pas d'accord","score":2},
					{"option":"Pas du tout d'accord","score":2}
				]
		},

		{
			"_id":8,
			"intituleQuestion" : "Votre travail nécessite-t-il de vous pencher en avant et/ou sur le côté régulièrement ou de manière prolongée ?",
			"typeQuestion": "radio",
			"scoreMaxQuestion": 2,
			"optionsQuestion":
				[
					{"option":"Jamais","score":0},
					{"option":"Rarement (moins de 2h/jour)","score":0},
					{"option":"Souvent (de 2 à 4h/jour)","score":2},
					{"option":"Toujours (plus de 4h/jour)","score":2}
				]
		}
	]
}
