[
 {
  "score": 0,
  "code": "1",
  "nom": "Moins de 10 salariés"
 },
 {
  "score": 0,
  "code": "2",
  "nom": "De 10 à 49 salariés"
 },
 {
  "score": 0,
  "code": "3",
  "nom": "De 50 à 199 salariés"
 },
 {
  "score": 0,
  "code": "4",
  "nom": "200 salariés et plus"
 }
]